Sponsor,Level,Year
RStudio,Sponsor,2020
Mu Sigma,Sponsor,2020
H2O,Sponsor,2020
DFG,Sponsor,2020
MeilleureAssurance,Violet,2019
RTE,Bronze,2019
ThinkR,Gold,2019
EDF,Silver,2019
Deloitte,Platinum,2019
INSEE,Bronze,2019
Taylor and Francis,Publisher,2019
JumpingRivers,Violet,2019
Hyphen Stat,Bronze,2019
Google,Bronze,2019
Safran,Silver,2019
Mango Solutions,Bronze,2019
R++,Violet,2019
Airbus,Gold,2019
Dacta,Violet,2019
BVA,Bronze,2019
L'Oréal,Silver,2019
ArData,Violet,2019
DreamRs,Violet,2019
MASCOT NUM,,2019
Datakili,Violet,2019
MaDICS,Violet,2019
Médiamétrie,Violet,2019
STAT4DECISION,Violet,2019
DataCamp,Silver,2019
Rstudio,Platinum,2019
R Consortium,Platinum,2019
Cambridge university Press,Publisher,2019
OpenAnalytics,Silver,2019
springer,Publisher,2019
StickerMule,Media,2019
Microsoft,Platinum,2018
Rstudio,Platinum,2018
R Consortium,Platinum,2018
VergeLabs,Bronze,2018
nab,Bronze,2018
Alteryx,Bronze,2018
DataCamp,Bronze,2018
Springer,Pro-networker,2018
CRC Press,Pro-networker,2018
Educational Measurement Solutions,Pro-networker,2018
Statistical Society of Australia,Pro-networker,2018
R-Ladies,Pro-networker,2018
Symbolix,Pro-networker,2018
StickerMule,Pro-networker,2018
SAGE Publishing,Pro-networker,2018
Microsoft,Platinum,2017
RStudio,Platinum,2017
DataCamp,Platinum,2017
Rconsortium,Platinum,2017
Opn Analytics,Platinum,2017
Eoda,Gold,2017
Oracle,Silver,2017
Mango Solutions,Silver,2017
Alteryx,Silver,2017
H2O,Bronze,2017
Google,Bronze,2017
T&F Academic,Publisher booth,2017
SAGE Publishing,Publisher booth,2017
Cambridge University Press,Publisher booth,2017
Wiley,Publisher booth,2017
Springer,Publisher booth,2017
Gordon and Betty Moore Foundation,Platinum,2016
Rstudio,Platinum,2016
H2O.ai,Platinum,2016
Google,Platinum,2016
R Consortium,Platinum,2016
ebay,Platinum,2016
Rennaissance Technologies,Platinum,2016
DataCamp,Platinum,2016
Bridgewater,Platinum,2016
Oracle,Gold,2016
Microsoft,Gold,2016
Two Sigma,Silver,2016
Alteryx,Silver,2016
Teradata,Silver,2016
Electronic Arts,Silver,2016
UPS,Bronze,2016
Domino,Bronze,2016
NYC Data Science Academy,Bronze,2016
SAGE Publishing,Publisher,2016
Cambridge Uni. Press,Publisher,2016
Wiley,Publisher,2016
Springer,Publisher,2016
R Studio,Platinum,2015
Revolution Analytics,Platinum,2015
Google,Silver,2015
TIBCO,Gold,2015
Teradata,Platinum,2015
DataRobot,Diamond,2015
Alteryx,Gold,2015
H2O,Gold,2015
Open Analytics,Silver,2015
DataCamp,Bronze,2015
CRC,Bronze,2015
Wiley,Bronze,2015
Springer,Bronze,2015
Cambridge University Press,Bronze,2015
Novo Nordisk,Silver,2015
Hugin,Bronze,2015
Vestas,Silver,2015
Quantide,Silver,2015
IBM,Silver,2015
HP,Gold,2015
R Studio,Platinum,2014
Revolution Analytics,Platinum,2014
Oracle,Platinum,2014
Google,Gold,2014
TIBCO,Silver,2014
Teradata,Silver,2014
DataRobot,Silver,2014
alteryx,Silver,2014
Facebook,Silver,2014
H2O,Silver,2014
Plotly,Bronze,2014
ToutBay,Bronze,2014
Open Analytics,Bronze,2014
Supstat Analytics,Bronze,2014
Sage,Bronze,2014
CRC,Bronze,2014
Wiley,Bronze,2014
Springer,Bronze,2014
Cambridge Uni. Press,Bronze,2014
