preferred,decision,count
lightning talk,lightning talk,42
lightning talk,poster,7
lightning talk,reject,22
lightning talk,talk,1
poster,lightning talk,1
poster,poster,64
poster,reject,29
poster,talk,4
talk,lightning talk,41
talk,poster,42
talk,reject,81
talk,talk,133
